/* XPM */
static char * cytadela_xpm[] = {
"32 32 618 2",
"  	c None",
". 	c #868482",
"+ 	c #4E4D4B",
"@ 	c #3B3C39",
"# 	c #363A36",
"$ 	c #363935",
"% 	c #3A3C38",
"& 	c #313331",
"* 	c #2F2F2F",
"= 	c #2B2B2B",
"- 	c #272727",
"; 	c #222222",
"> 	c #1D1D1D",
", 	c #1E1E1E",
"' 	c #515151",
") 	c #635F5D",
"! 	c #4D4646",
"~ 	c #4D4546",
"{ 	c #494445",
"] 	c #434142",
"^ 	c #444341",
"/ 	c #3E3F3B",
"( 	c #343834",
"_ 	c #323532",
": 	c #313131",
"< 	c #2D2D2D",
"[ 	c #292929",
"} 	c #242424",
"| 	c #1F1F1F",
"1 	c #161616",
"2 	c #646661",
"3 	c #50504E",
"4 	c #505050",
"5 	c #504E4F",
"6 	c #504A4F",
"7 	c #4E484D",
"8 	c #4F4B4B",
"9 	c #474340",
"0 	c #3D3E3C",
"a 	c #373A36",
"b 	c #333733",
"c 	c #323432",
"d 	c #303030",
"e 	c #2A2A2A",
"f 	c #252525",
"g 	c #202020",
"h 	c #171717",
"i 	c #6E716E",
"j 	c #555B55",
"k 	c #565C56",
"l 	c #555A54",
"m 	c #535852",
"n 	c #525450",
"o 	c #515050",
"p 	c #575351",
"q 	c #514949",
"r 	c #4B4447",
"s 	c #424041",
"t 	c #3A3C3A",
"u 	c #333833",
"v 	c #2F3030",
"w 	c #2A2B2B",
"x 	c #201F1F",
"y 	c #1B1414",
"z 	c #4D4B4B",
"A 	c #9FA0A0",
"B 	c #5F6361",
"C 	c #626462",
"D 	c #5F615F",
"E 	c #5D5F5D",
"F 	c #5A5E5A",
"G 	c #575D57",
"H 	c #575854",
"I 	c #504F4F",
"J 	c #504B50",
"K 	c #4D474D",
"L 	c #464446",
"M 	c #3F403E",
"N 	c #383936",
"O 	c #3E2B29",
"P 	c #3F2524",
"Q 	c #4E1614",
"R 	c #401413",
"S 	c #440F0E",
"T 	c #1E1616",
"U 	c #8F8F8F",
"V 	c #737574",
"W 	c #676A6A",
"X 	c #696B6B",
"Y 	c #636866",
"Z 	c #636665",
"` 	c #545756",
" .	c #515251",
"..	c #4E504E",
"+.	c #585D58",
"@.	c #575C56",
"#.	c #565754",
"$.	c #545153",
"%.	c #514C50",
"&.	c #4E4A4A",
"*.	c #3F3E3C",
"=.	c #58241F",
"-.	c #710A08",
";.	c #491B1A",
">.	c #521411",
",.	c #680503",
"'.	c #380C0C",
").	c #414242",
"!.	c #BDBABD",
"~.	c #757076",
"{.	c #746F75",
"].	c #737175",
"^.	c #6E6E70",
"/.	c #444645",
"(.	c #383A39",
"_.	c #353836",
":.	c #545856",
"<.	c #555B54",
"[.	c #514D4F",
"}.	c #4B4847",
"|.	c #4B3433",
"1.	c #750B0A",
"2.	c #4F1B1A",
"3.	c #421F1F",
"4.	c #4E100F",
"5.	c #290D0D",
"6.	c #1F2020",
"7.	c #A6A2A5",
"8.	c #7E767D",
"9.	c #807980",
"0.	c #847B85",
"a.	c #817881",
"b.	c #7C767D",
"c.	c #5B585C",
"d.	c #454346",
"e.	c #3C3C3D",
"f.	c #4E5050",
"g.	c #616464",
"h.	c #5C5F5D",
"i.	c #50534F",
"j.	c #4B4A4A",
"k.	c #484442",
"l.	c #3C2B2B",
"m.	c #311716",
"n.	c #1E1413",
"o.	c #100F0E",
"p.	c #060606",
"q.	c #000101",
"r.	c #0B0B0B",
"s.	c #949690",
"t.	c #929192",
"u.	c #7E7D7D",
"v.	c #858584",
"w.	c #878687",
"x.	c #888388",
"y.	c #888088",
"z.	c #7B737C",
"A.	c #3E3B3E",
"B.	c #232224",
"C.	c #232425",
"D.	c #292C2C",
"E.	c #212220",
"F.	c #171917",
"G.	c #0F0F0F",
"H.	c #0A0909",
"I.	c #030303",
"J.	c #000000",
"K.	c #020102",
"L.	c #62645B",
"M.	c #838583",
"N.	c #838382",
"O.	c #868686",
"P.	c #888988",
"Q.	c #888888",
"R.	c #838183",
"S.	c #302F2E",
"T.	c #41403A",
"U.	c #9A9B99",
"V.	c #8E8F8E",
"W.	c #8A898B",
"X.	c #867E87",
"Y.	c #7B767E",
"Z.	c #797B7A",
"`.	c #868986",
" +	c #888A88",
".+	c #4B4C4A",
"++	c #010101",
"@+	c #2D2D29",
"#+	c #878987",
"$+	c #888A87",
"%+	c #898B89",
"&+	c #8B8C8A",
"*+	c #858186",
"=+	c #706F74",
"-+	c #636867",
";+	c #6E726F",
">+	c #898B88",
",+	c #696A68",
"'+	c #0B0B0A",
")+	c #191917",
"!+	c #878487",
"~+	c #878287",
"{+	c #868087",
"]+	c #858086",
"^+	c #767679",
"/+	c #5F6363",
"(+	c #777A75",
"_+	c #80807F",
":+	c #1F1F1D",
"<+	c #070807",
"[+	c #212121",
"}+	c #1C1C1C",
"|+	c #121212",
"1+	c #837A85",
"2+	c #807881",
"3+	c #7B757C",
"4+	c #767278",
"5+	c #737174",
"6+	c #777778",
"7+	c #626664",
"8+	c #545952",
"9+	c #61635F",
"0+	c #898987",
"a+	c #3A3B39",
"b+	c #020202",
"c+	c #262724",
"d+	c #3C3C3B",
"e+	c #363636",
"f+	c #2E2E2E",
"g+	c #1B1B1B",
"h+	c #4E544A",
"i+	c #716F75",
"j+	c #6A6C6D",
"k+	c #646867",
"l+	c #626665",
"m+	c #686B6A",
"n+	c #666866",
"o+	c #51524F",
"p+	c #524E51",
"q+	c #7E7D7C",
"r+	c #5B5C5A",
"s+	c #2B2C2B",
"t+	c #545852",
"u+	c #545654",
"v+	c #4E4F4E",
"w+	c #3A3A39",
"x+	c #2B2B2A",
"y+	c #232323",
"z+	c #686864",
"A+	c #626666",
"B+	c #5E6160",
"C+	c #5D615F",
"D+	c #5C5F5E",
"E+	c #5C605C",
"F+	c #5F615C",
"G+	c #534D4F",
"H+	c #4C454B",
"I+	c #6D6D6B",
"J+	c #797A78",
"K+	c #1D1D1C",
"L+	c #040404",
"M+	c #5A5D5D",
"N+	c #595D58",
"O+	c #535650",
"P+	c #535254",
"Q+	c #565656",
"R+	c #3A3939",
"S+	c #151515",
"T+	c #1F1F1E",
"U+	c #585F5A",
"V+	c #565B56",
"W+	c #555A55",
"X+	c #545853",
"Y+	c #525652",
"Z+	c #545552",
"`+	c #51484E",
" @	c #443F44",
".@	c #5C5F5A",
"+@	c #969694",
"@@	c #8D8F8D",
"#@	c #727472",
"$@	c #312F2E",
"%@	c #181818",
"&@	c #242223",
"*@	c #5F6062",
"=@	c #606464",
"-@	c #514E4F",
";@	c #3D3A3D",
">@	c #1C1C1D",
",@	c #191919",
"'@	c #141414",
")@	c #9D9D9B",
"!@	c #545750",
"~@	c #50504F",
"{@	c #4F4D4E",
"]@	c #4F4B4E",
"^@	c #4F4D4F",
"/@	c #474348",
"(@	c #393B39",
"_@	c #4A4E48",
":@	c #979894",
"<@	c #9F9AA1",
"[@	c #979699",
"}@	c #8F908D",
"|@	c #827F7D",
"1@	c #7E7A7D",
"2@	c #746E76",
"3@	c #6C6D6F",
"4@	c #606564",
"5@	c #565A53",
"6@	c #4C4D4B",
"7@	c #2C2B2B",
"8@	c #242222",
"9@	c #8C8C89",
"0@	c #534C47",
"a@	c #514A47",
"b@	c #4F4848",
"c@	c #4D4748",
"d@	c #4B4546",
"e@	c #484443",
"f@	c #484645",
"g@	c #383A38",
"h@	c #656663",
"i@	c #8E8B8E",
"j@	c #949397",
"k@	c #838281",
"l@	c #838482",
"m@	c #827984",
"n@	c #6E6E71",
"o@	c #626766",
"p@	c #5D605F",
"q@	c #565954",
"r@	c #40403F",
"s@	c #252425",
"t@	c #262525",
"u@	c #262626",
"v@	c #9F9F9F",
"w@	c #48413C",
"x@	c #43413E",
"y@	c #3F3F3D",
"z@	c #3D3E3B",
"A@	c #3A3C39",
"B@	c #373B36",
"C@	c #3E403D",
"D@	c #3A3B38",
"E@	c #2C2C2C",
"F@	c #252626",
"G@	c #373736",
"H@	c #7E807C",
"I@	c #888B88",
"J@	c #827A84",
"K@	c #706F73",
"L@	c #565853",
"M@	c #383837",
"N@	c #232222",
"O@	c #252424",
"P@	c #A0A0A0",
"Q@	c #373833",
"R@	c #333633",
"S@	c #2E302E",
"T@	c #272726",
"U@	c #2D2C2C",
"V@	c #282928",
"W@	c #2E2E2D",
"X@	c #7D807C",
"Y@	c #888688",
"Z@	c #727075",
"`@	c #555653",
" #	c #343532",
".#	c #242323",
"+#	c #272626",
"@#	c #2E2F2E",
"##	c #333230",
"$#	c #343333",
"%#	c #282828",
"&#	c #252625",
"*#	c #343632",
"=#	c #333632",
"-#	c #333532",
";#	c #474844",
">#	c #757374",
",#	c #857C86",
"'#	c #5F6161",
")#	c #4E504C",
"!#	c #2D302D",
"~#	c #252323",
"{#	c #747474",
"]#	c #212122",
"^#	c #272827",
"/#	c #222220",
"(#	c #3D3D39",
"_#	c #3E3E3B",
":#	c #3B3B39",
"<#	c #3C3B39",
"[#	c #474945",
"}#	c #747075",
"|#	c #737176",
"1#	c #5F6160",
"2#	c #4F504C",
"3#	c #2B2C2A",
"4#	c #272625",
"5#	c #282727",
"6#	c #464646",
"7#	c #868685",
"8#	c #5F5E5D",
"9#	c #797979",
"0#	c #171716",
"a#	c #1B1B1A",
"b#	c #181813",
"c#	c #29281E",
"d#	c #4B4941",
"e#	c #4C4A46",
"f#	c #4B4A48",
"g#	c #4B4949",
"h#	c #4C4A48",
"i#	c #555253",
"j#	c #6D6C70",
"k#	c #646969",
"l#	c #5E605F",
"m#	c #4D4D49",
"n#	c #292826",
"o#	c #262523",
"p#	c #282726",
"q#	c #2B292A",
"r#	c #3D3D3D",
"s#	c #8F8F8E",
"t#	c #B3B3B2",
"u#	c #616261",
"v#	c #232322",
"w#	c #2D2C2A",
"x#	c #8C8C8C",
"y#	c #727272",
"z#	c #575756",
"A#	c #25251B",
"B#	c #101003",
"C#	c #18180D",
"D#	c #1B1B0F",
"E#	c #1C1C0D",
"F#	c #23230E",
"G#	c #292910",
"H#	c #2B2B14",
"I#	c #2A2A18",
"J#	c #2B2B1C",
"K#	c #303125",
"L#	c #39392F",
"M#	c #44463E",
"N#	c #545652",
"O#	c #676969",
"P#	c #494946",
"Q#	c #2D2D2A",
"R#	c #2C2E2A",
"S#	c #353535",
"T#	c #6F6E6D",
"U#	c #3D3D3C",
"V#	c #262625",
"W#	c #343633",
"X#	c #484743",
"Y#	c #4E4849",
"Z#	c #101010",
"`#	c #0D0D0D",
" $	c #0C0C0C",
".$	c #0D0D0C",
"+$	c #0E0E04",
"@$	c #111100",
"#$	c #191908",
"$$	c #20200F",
"%$	c #212110",
"&$	c #222210",
"*$	c #1F1E0D",
"=$	c #1B1B0A",
"-$	c #181908",
";$	c #1D1E10",
">$	c #37382D",
",$	c #5E645B",
"'$	c #4B4D48",
")$	c #292B29",
"!$	c #1B1D1B",
"~$	c #111111",
"{$	c #222121",
"]$	c #272828",
"^$	c #414442",
"/$	c #535952",
"($	c #515250",
"_$	c #141411",
":$	c #151507",
"<$	c #171706",
"[$	c #1D1D0C",
"}$	c #1F1F0E",
"|$	c #1E1E0D",
"1$	c #1B1B09",
"2$	c #171707",
"3$	c #191A0E",
"4$	c #2D3028",
"5$	c #2E2F2B",
"6$	c #262725",
"7$	c #464945",
"8$	c #5D6160",
"9$	c #5E615F",
"0$	c #5A5E5B",
"a$	c #565A54",
"b$	c #252522",
"c$	c #222418",
"d$	c #1C1C0E",
"e$	c #19190A",
"f$	c #191A09",
"g$	c #1D1D0E",
"h$	c #232315",
"i$	c #282A1C",
"j$	c #313125",
"k$	c #393632",
"l$	c #393937",
"m$	c #353734",
"n$	c #2D2E2D",
"o$	c #232324",
"p$	c #1A1A1A",
"q$	c #161515",
"r$	c #1A1C1A",
"s$	c #454642",
"t$	c #686869",
"u$	c #606463",
"v$	c #604945",
"w$	c #131313",
"x$	c #323431",
"y$	c #393C38",
"z$	c #3D3D3A",
"A$	c #45413B",
"B$	c #43413D",
"C$	c #464842",
"D$	c #5A5C57",
"E$	c #656564",
"F$	c #5B605D",
"G$	c #535450",
"H$	c #504D50",
"I$	c #454247",
"J$	c #3D3E3D",
"K$	c #343533",
"L$	c #1C1C1B",
"M$	c #30322D",
"N$	c #676365",
"O$	c #817982",
"P$	c #7B757D",
"Q$	c #717174",
"R$	c #6C5655",
"S$	c #63403D",
"T$	c #1E1F1E",
"U$	c #363B35",
"V$	c #3E3E3E",
"W$	c #434241",
"X$	c #514D4B",
"Y$	c #535252",
"Z$	c #595C58",
"`$	c #5E6362",
" %	c #696C68",
".%	c #6E6F6E",
"+%	c #545551",
"@%	c #4C484D",
"#%	c #413F42",
"$%	c #3C3D3A",
"%%	c #3A3B37",
"&%	c #363734",
"*%	c #1C1B1A",
"=%	c #4D4B46",
"-%	c #7D7A7C",
";%	c #888488",
">%	c #827881",
",%	c #783937",
"'%	c #665657",
")%	c #292828",
"!%	c #2A2828",
"~%	c #2B2A29",
"{%	c #30302F",
"]%	c #343833",
"^%	c #3B3D39",
"/%	c #3F3F3F",
"(%	c #474542",
"_%	c #514E4C",
":%	c #525251",
"<%	c #575B57",
"[%	c #5E6360",
"}%	c #686C66",
"|%	c #6D6E6E",
"1%	c #626564",
"2%	c #555853",
"3%	c #4F4C4F",
"4%	c #454248",
"5%	c #3E3E3D",
"6%	c #3C3E3B",
"7%	c #3E3F3A",
"8%	c #353635",
"9%	c #2A2A2B",
"0%	c #252320",
"a%	c #5C5B56",
"b%	c #848584",
"c%	c #878186",
"d%	c #7C6B73",
"e%	c #6B6B6E",
"f%	c #2B2928",
"g%	c #2B2A2A",
"h%	c #373B35",
"i%	c #3E3F3D",
"j%	c #4A4642",
"k%	c #504E4B",
"l%	c #555654",
"m%	c #575D58",
"n%	c #5E6461",
"o%	c #686B66",
"p%	c #6C6D6D",
"q%	c #4A454C",
"r%	c #3F3F40",
"s%	c #40403C",
"t%	c #272728",
"u%	c #2B2824",
"v%	c #61625E",
"w%	c #868886",
"x%	c #8A8D8A",
"y%	c #888588",
"z%	c #817A85",
"A%	c #6D6D70",
"              . + @ # $ % & * = - ; > , '                       ",
"            ) ! ~ { ] ^ / ( _ : < [ } | 1 *                     ",
"          2 3 4 5 6 7 8 9 0 a b c d e f g h <                   ",
"        i j k l m n o p q r s t u _ v w f x y z                 ",
"      A B C D E F G l H I J K L M N O P Q R S T U               ",
"      V W X Y Z `  ...+.@.#.$.%.&.*.=.-.;.>.,.'.).              ",
"    !.~.{.].^.X /.(._.:.F <.n 5 [.}.|.1.2.3.4.5.6.              ",
"    7.8.9.0.a.b.c.d.e.f.g.h.<.i.j.k.l.m.n.o.p.q.r.s.            ",
"    t.u.v.w.x.y.z.A.B.C.D.[ E.F.G.H.I.q.J.J.J.J.K.L.            ",
"    M.N.w.O.P.Q.R.S.J.J.J.J.J.J.J.J.J.J.J.J.J.J.J.T.            ",
"  U.V.W.X.Y.Z.`. +.+++J.J.J.J.J.J.J.J.J.J.J.J.J.J.@+            ",
"#+$+%+&+*+=+-+;+>+,+'+J.J.J.J.J.J.J.J.J.J.J.++I.I.)+            ",
"!+!+~+{+]+^+/+F (+_+:+J.J.J.J.J.J.J.J.J.<+1 | [+}+|+            ",
"1+2+3+4+5+6+7+8+9+0+a+J.J.J.J.J.J.J.b+c+d+e+f+[ f g+h+          ",
"i+j+W k+l+m+n+o+p+q+r+I.J.J.J.J.J.b+s+t+u+v+w+: x+y+h z+        ",
"A+/+B+C+D+E+F+G+H+I+J+K+L+J.J.J.J.f M+N+O+P+Q+R+f }+S+T+        ",
"U++.V+W+X+Y+Z+`+ @.@+@@@#@Z+$@%@&@*@=@F t+-@;@y+| >@,@'@)@      ",
"!@n ~@I {@]@^@/@(@_@:@<@[@}@|@1@2@3@4@h.5@6@7@8@y+| }+S+9@      ",
"0@a@b@c@d@e@f@M b g@h@i@j@k@l@x.m@n@o@p@q@r@s@t@u@; , ,@v@      ",
"w@x@y@z@A@B@C@D@& E@F@G@h@H@I@!+J@K@o@B+L@M@t@N@O@} g g+P@      ",
"Q@( b R@_ S@T@U@f+- V@< W@n X@Y@0.Z@-+B+`@ #t@.#+#u@; > P@      ",
"w+@#* f+E@e ##$#%#[+&#*#=#-#;#>#,#Z@-+'#)#!#t@~#.#%#} [+        ",
"  {#d ; ]#[+^#V@; g+/#(#_#:#<#[#}#|#o@1#2#3#4#~#5#[ F@6#    7#8#",
"      9#W@0#} y+a#b#c#d#e#f#g#h#i#j#k#l#m#n#o#p#q#r#s#t#u#= v#w#",
"  x#y#z#A#B#C#D#E#F#G#H#I#J#K#L#M#N#O#B P#Q#R#^#g+S#T#U#V#W#X#Y#",
"Z#`# $.$+$@$#$$$%$%$%$&$&$$$*$=$-$;$>$,$'$)$!$|+~${$g ]$^$/$t+($",
"G.G.Z#|+_$:$<$=$[$}$}$}$|$[$1$#$<$2$3$4$5$|+G.G., x 6$7$8$9$0$a$",
"Z#~$1 }+[+b$c$d$e$#$#$f$g$h$i$j$k$l$m$n$o$p$|+q$.#r$s$t$m+-+u$v$",
"w$,@g ; [ x$y$z$A$B$C$_@D$E$F$G$H$I$J$# K$x+, O@L$M$N$O$P$Q$R$S$",
"T${$.#[ & U$V$W$X$Y$Z$`$ %.%u$+%I @%#%$%%%&%W@7@*%=%-%;%~+>%,%'%",
")%!%~%{%]%^%/%(%_%:%<%[%}%|%1%2%3 3%4%5%6%7%8%9%0%a%b%I@#+c%d%e%",
"f%[ g%& h%i%/%j%k%l%m%n%o%p%1%q@3 H$q%r%s%^%$ t%u%v%w%x%I@y%z%A%"};
